{
  "title": "Dysfonctionnement",
  "description": "La procédure de vote a été mal appliquée par un intervenant dans le processus de vote (administration, groupe, votants, etc...).",
  
  "type": "object",
  "additionalProperties": false,
  "properties": {
    "abstentions": {
      "description": "Liste des `acteurs <acteur.html>`__ qui auraient voulu s'abstenir.",
      "items": {
        "$ref": "Votant.json"
      },
      "type": "array"
    },
    "contre": {
      "description": "Liste des `acteurs <acteur.html>`__ qui auraient voulu voter contre.",
      "items": {
        "$ref": "Votant.json"
      },
      "type": "array"
    },
    "nonVotants": {
      "description": "Liste des `acteurs <acteur.html>`__ qui n'auraient pas du participer à ce vote en raison de leur position (Président de séance etc.).",
      "items": {
        "$ref": "Votant.json"
      },
      "type": "array"
    },
    "nonVotantsVolontaires": {
      "description": "Liste des `acteurs <acteur.html>`__ qui auraient voulu ne pas prendre part au vote.",
      "items": {
        "$ref": "Votant.json"
      },
      "type": "array"
    },
    "pour": {
      "description": "Liste des `acteurs <acteur.html>`__ qui auraient voulu voter pour.",
      "items": {
        "$ref": "Votant.json"
      },
      "type": "array"
    }
  },
  "required": [
  ],

  "$schema": "http://json-schema.org/draft-07/schema#",
  "$id": "Dysfonctionnement.json",
  "$$target": "Dysfonctionnement.json"
}
