{
  "title": "Collaborateur",
  "description": "",
  
  "type": "object",
  "additionalProperties": false,
  "properties": {
    "qualite": {
      "$ref": "Civ.json"
    },
    "nom": {
      "description": "Nom.",
      "type": "string"
    },
    "prenom": {
      "description": "Prénom.",
      "type": "string"
    }
  },
  "required": [
    "qualite",
    "prenom",
    "nom"
  ],
  
  "$schema": "http://json-schema.org/draft-07/schema#",
  "$id": "Collaborateur.json",
  "$$target": "Collaborateur.json"
}
