{
  "schemaVersion": "amendement-0.0",
  "uid": "AMANR5L15SEA717460BTC0902P0D1N2550",
  "identifiant": {
    "legislature": "15",
    "numero": "2550",
    "numRect": "0",
    "saisine": {
      "texteLegislatifRef": "PRJLANR5L15BTC0902",
      "numeroPartiePLF": "0",
      "organeExamen": "PO717460",
      "mentionSecondeDeliberation": "0"
    }
  },
  "numeroLong": "2550",
  "etapeTexte": "1ère lecture (1ère assemblée saisie)",
  "triAmendement": "hbc",
  "cardinaliteAmdtMultiples": "1",
  "etat": "Discuté",
  "signataires": {
    "auteur": {
      "typeAuteur": "Depute",
      "acteurRef": "PA607619",
      "groupePolitiqueRef": "PO730964"
    },
    "cosignatairesRefs": [
      "PA607595",
      "PA642695",
      "PA607619"
    ],
    "texteAffichable": "M.&#160;Molac,  M.&#160;Pellois et M.&#160;Bothorel"
  },
  "pointeurFragmentTexte": {
    "division": {
      "titre": "Article 15 bis",
      "articleDesignationCourte": "APRÈS ART. 15 BIS",
      "type": "ARTICLE",
      "avantAApres": "Apres",
      "divisionRattachee": "APRÈS L'ARTICLE 15 BIS, insérer l'article suivant:",
      "articleAdditionnel": "1",
      "urlDivisionTexteVise": "/15/textes/0902.asp#D_Article_15_bis"
    }
  },
  "corps": {
    "dispositif": "<p style=\"text-align: justify;\">Le second alin&#233;a de l&#8217;article L.&#160;255&#8209;12 du code rural et de la p&#234;che maritime est remplac&#233; par quatre alin&#233;as ainsi r&#233;dig&#233;s&#160;:</p><p style=\"text-align: justify;\">&#171;&#160;Il en va de m&#234;me d&#8217;une mati&#232;re fertilisante ou d&#8217;un support de culture du fait de sa conformit&#233; &#224;&#160;:</p><p style=\"text-align: justify;\">&#171;&#160;&#8211;&#160;une norme mentionn&#233;e au 1&#176; de l&#8217;article L.&#160;255&#8209;5 du pr&#233;sent code d&#232;s lors qu&#8217;elle garantit que l&#8217;ensemble des conditions pr&#233;vues &#224; l&#8217;article L.&#160;541&#8209;4&#8209;3 du code de l&#8217;environnement sont remplies&#160;;</p><p style=\"text-align: justify;\">&#171;&#160;&#8211;&#160;un r&#232;glement de l&#8217;Union&#160;europ&#233;enne mentionn&#233; au 2&#176; de l&#8217;article L.&#160;255&#8209;5 du pr&#233;sent code d&#232;s lors qu&#8217;il garantit que l&#8217;ensemble des conditions pr&#233;vues &#224; l&#8217;article L.&#160;541&#8209;4&#8209;3 du code de l&#8217;environnement sont remplies&#160;;</p><p style=\"text-align: justify;\">&#171;&#160;&#8211;&#160;un cahier des charges pris en application du 3&#176; de l&#8217;article L.&#160;255&#8209;5 du pr&#233;sent code d&#232;s lors qu&#8217;il garantit que l&#8217;ensemble des conditions pr&#233;vues &#224; l&#8217;article L.&#160;541&#8209;4&#8209;3 du code de l&#8217;environnement sont remplies.&#160;&#187;</p>",
    "exposeSommaire": "<p style=\"text-align: justify;\">Cet amendement vise &#224; pr&#233;voir en droit fran&#231;ais les conditions de sortie du statut du d&#233;chet des effluents d&#8217;&#233;levage en conformit&#233; avec le droit de l&#8217;Union&#160;europ&#233;enne. En effet, aux termes de la directive D&#233;chet et du R&#232;glement relatif aux sous-produits, les effluents d&#8217;&#233;levage ne sont pas consid&#233;r&#233;s comme des d&#233;chets.</p><p style=\"text-align: justify;\">Une telle modification permettrait &#224; un support de culture ou une mati&#232;re fertilisante de sortir de droit du statut du d&#233;chet d&#232;s lors qu&#8217;elle peut justifier de sa conformit&#233; &#224; une norme, un r&#232;glement&#160;europ&#233;en ou un cahier des charges et qu&#8217;elle respecte les pr&#233;conisations de l&#8217;article L.&#160;541&#8209;4&#8209;3 du code de l&#8217;environnement.</p>"
  },
  "representations": [
    {
      "nom": "PDF",
      "typeMime": {
        "type": "application",
        "subType": "PDF"
      },
      "statutRepresentation": {
        "verbatim": true,
        "canonique": true,
        "officielle": true,
        "transcription": false,
        "enregistrement": false
      },
      "contenu": {
        "documentURI": "/15/amendements/0902/AN/2550.pdf"
      }
    }
  ],
  "seanceDiscussion": "RUANR5L15S2018IDS21060",
  "sort": {
    "dateSaisie": "2018-05-30T00:14:58.000+02:00",
    "sortEnSeance": "Rejeté"
  },
  "dateDepot": "2018-05-17T02:00:00.000+02:00",
  "dateDistribution": "2018-05-23T02:00:00.000+02:00",
  "article99": "0",
  "loiReference": {
    "codeLoi": "c rural et pêche maritime",
    "divisionCodeLoi": "L255-12"
  }
}
