{
  "xsiType": "DossierMissionControle_Type",
  "uid": "DLR5L14N35369",
  "legislature": "14",
  "titreDossier": {
    "titre": "Proposition de résolution visant à réunir la Haute Cour",
    "titreChemin": "resolution_haute_cour"
  },
  "procedureParlementaire": {
    "code": "14",
    "libelle": "Responsabilité pénale du président de la république"
  },
  "initiateur": {
    "acteurs": [
      {
        "acteurRef": "PA1695",
        "mandatRef": "PM645157"
      }
    ]
  },
  "actesLegislatifs": [
    {
      "xsiType": "Etape_Type",
      "uid": "L14-AN1-35369",
      "codeActe": "AN1",
      "libelleActe": {
        "nomCanonique": "1ère lecture (1ère assemblée saisie)",
        "libelleCourt": "1ère lecture"
      },
      "organeRef": "PO644420",
      "actesLegislatifs": [
        {
          "xsiType": "DepotInitiative_Type",
          "uid": "L14-VD180066DI",
          "codeActe": "AN1-DEPOT",
          "libelleActe": {
            "nomCanonique": "1er dépôt d'une initiative.",
            "libelleCourt": "1er dépôt d'une initiative."
          },
          "organeRef": "PO644420",
          "dateActe": "2016-11-10T00:00:00.000+01:00",
          "texteAssocieRef": "PNREANR5L14B4213"
        },
        {
          "xsiType": "DecisionRecevabiliteBureau_Type",
          "uid": "L14-VD180191RECBUREAU",
          "codeActe": "AN1-RECBUREAU",
          "libelleActe": {
            "nomCanonique": "Recevabilité par le Bureau",
            "libelleCourt": "Recevabilité par le Bureau"
          },
          "organeRef": "PO644420",
          "dateActe": "2016-11-23T00:00:00.000+01:00",
          "decision": {
            "famCode": "02",
            "libelle": "irrecevable"
          },
          "formuleDecision": "en application des dispositions des articles 1er et 2 de la loi organique n° 2014-1392 du 24 novembre 2014 portant application de l'article 68 de la Constitution"
        }
      ]
    }
  ]
}