{
  "xsiType": "OrganeExtraParlementaire_type",
  "uid": "PO60186",
  "codeType": "ORGEXTPARL",
  "libelle": "Conseil supérieur de l'établissement national des invalides de la marine",
  "libelleEdition": "du conseil supérieur de l'établissement national des invalides de la marine",
  "libelleAbrege": "Invalides de la marine",
  "libelleAbrev": "043",
  "viMoDe": {
    "dateDebut": "1953-09-30T01:00:00.000+01:00",
    "dateFin": "2011-12-30T01:00:00.000+01:00"
  },
  "regime": "4ème République",
  "regimeJuridique": "Décret 53-953 du 30 09 1953 modifié par décret 60-882 du 06 08 1960, décret 64-432 du 14 05 1964 et décret 85-737 du 16 07 1985"
}