{
  "title": "Point de l'ordre du jour",
  "description": "",

  "type": "object",
  "additionalProperties": false,
  "properties": {
    "comiteSecret": {
      "$comment": "Discussion https://forum.en-root.org/t/signification-du-champ-comitesecret-dun-agenda/185",
      "description": "La valeur est toujours false et la signification indéfinie.",
      "type": "boolean"
    },
    "cycleDeVie": {
      "description": "Cycle de vie du point de l'ordre du jour.",
      "$ref": "CycleDeVie.json"
    },
    "dateConfPres": {
      "description": "Pour les réunions dont xsiType est 'seance_type', c'est à dire une séance publique, date à laquelle la `conférence des présidents <https://fr.wikipedia.org/wiki/Conf%C3%A9rence_des_pr%C3%A9sidents_de_l%27Assembl%C3%A9e_nationale>`__ a ajouté ce point à l'ordre du jour.",
      "format": "date-time",
      "type": "string"
    },
    "dateLettreMinistre": {
      "description": "Pour les réunions dont xsiType est 'seance_type', c'est à dire une séance publique, date de la lettre du premier ministre qui demande l'inscription d'un texte à l'ordre du jour `au nom du gouvernement <http://www2.assemblee-nationale.fr/decouvrir-l-assemblee/role-et-pouvoirs-de-l-assemblee-nationale/l-organisation-des-travaux-de-l-assemblee-nationale/la-fixation-de-l-ordre-du-jour-et-la-conference-des-presidents>`__.",
      "format": "date-time",
      "type": "string"
    },
    "dossiersLegislatifsRefs": {
      "description": "Pour les réunions dont xsiType est 'seance_type', c'est à dire une séance publique ou bien 'reunionCommission_type', c'est à dire une commission, liste des identifiants uniques (uid) des dossiers législatifs dont il sera question.",
      "items": {
        "type": "string"
      },
      "type": "array"
    },
    "natureTravauxOdj": {
      "$comment": "Disussion https://forum.en-root.org/t/signification-du-champ-naturetravauxodj-dun-agenda/186",
      "description": "Vaut ODJPR pour les ordre du jour prioritaires (quel que soit le lieu ou se tient la réunion) et ODJSN pour les ordre du jour des réunions qui se tiennent au Sénat.",
      "enum": [
        "ODJPR",
        "ODJSN"
      ],
      "type": "string"
    },
    "objet": {
      "description": "Description du point de l'ordre du jour.",
      "type": "string"
    },
    "procedure": {
      "description": "L'article du `règlement de l'assemblée nationale <http://www2.assemblee-nationale.fr/content/download/73698/754101/version/2/file/reglement.pdf>`__ qui justifie ce point de l'ordre du jour (par exemple: la `procédure d'examen simplifiée <http://www2.assemblee-nationale.fr/decouvrir-l-assemblee/textes-de-reference/reglement-de-l-assemblee-nationale/titre-ii/premiere-partie/chapitre-v>`__)",
      "enum": [
        "discussion générale commune",
        "procédure d'examen simplifiée-Article 103",
        "procédure d'examen simplifiée-Article 106",
	"procédure de législation en commission-Article 107-1"
      ],
      "type": "string"
    },
    "typePointOdj": {
      "description": "Type de point de l'ordre du jour (par exemple: Discussion, Examen, Suite de la discussion, Amendements (Art. 88), etc.",
      "type": "string"
    },
    "uid": {
      "description": "Identifiant unique.",
      "type": "string"
    },
    "xsiType": {
      "description": "Pour les réunions dont xsiType est 'seance_type', c'est à dire une séance publique, chaque point de l'ordre du jour est fixé par la `conférence des présidents <https://fr.wikipedia.org/wiki/Conf%C3%A9rence_des_pr%C3%A9sidents_de_l%27Assembl%C3%A9e_nationale>`__ et a donc la valeur 'podjSeanceConfPres_type' pour le champ xsiType. Dans tout les autres cas la valeur est 'podjReunion_type'",
      "enum": [
        "podjReunion_type",
        "podjSeanceConfPres_type"
      ],
      "type": "string"
    }
  },
  "required": [
    "xsiType",
    "uid"
  ],

  "$schema": "http://json-schema.org/draft-07/schema#",
  "$id": "PointOdj.json",
  "$$target": "PointOdj.json"
}
