{
    "$schema": "http://json-schema.org/draft-07/schema#",
    "definitions": {
        "Acteur": {
            "properties": {
                "adresses": {
                    "items": {
                        "anyOf": [
                            {
                                "$ref": "#/definitions/AdresseElectronique"
                            },
                            {
                                "$ref": "#/definitions/AdressePostale"
                            }
                        ]
                    },
                    "type": "array"
                },
                "etatCivil": {
                    "$ref": "#/definitions/EtatCivil"
                },
                "mandats": {
                    "items": {
                        "$ref": "#/definitions/Mandat"
                    },
                    "type": "array"
                },
                "photo": {
                    "$ref": "#/definitions/Photo"
                },
                "profession": {
                    "$ref": "#/definitions/Profession"
                },
                "schemaVersion": {
                    "type": "string"
                },
                "uid": {
                    "type": "string"
                },
                "uriHatvp": {
                    "type": "string"
                }
            },
            "type": "object"
        },
        "ActeursEtOrganes": {
            "properties": {
                "acteurs": {
                    "items": {
                        "$ref": "#/definitions/Acteur"
                    },
                    "type": "array"
                },
                "organes": {
                    "items": {
                        "$ref": "#/definitions/Organe"
                    },
                    "type": "array"
                }
            },
            "type": "object"
        },
        "Adresse": {
            "anyOf": [
                {
                    "$ref": "#/definitions/AdresseElectronique"
                },
                {
                    "$ref": "#/definitions/AdressePostale"
                }
            ]
        },
        "AdresseElectronique": {
            "properties": {
                "adresseDeRattachement": {
                    "type": "string"
                },
                "poids": {
                    "type": "string"
                },
                "type": {
                    "type": "string"
                },
                "typeLibelle": {
                    "type": "string"
                },
                "uid": {
                    "type": "string"
                },
                "valElec": {
                    "type": "string"
                },
                "xsiType": {
                    "enum": [
                        "AdresseMail_Type",
                        "AdresseSiteWeb_Type",
                        "AdresseTelephonique_Type"
                    ],
                    "type": "string"
                }
            },
            "type": "object"
        },
        "AdressePostale": {
            "properties": {
                "codePostal": {
                    "type": "string"
                },
                "complementAdresse": {
                    "type": "string"
                },
                "intitule": {
                    "type": "string"
                },
                "nomRue": {
                    "type": "string"
                },
                "numeroRue": {
                    "type": "string"
                },
                "poids": {
                    "type": "string"
                },
                "type": {
                    "type": "string"
                },
                "typeLibelle": {
                    "type": "string"
                },
                "uid": {
                    "type": "string"
                },
                "ville": {
                    "type": "string"
                },
                "xsiType": {
                    "enum": [
                        "AdressePostale_Type"
                    ],
                    "type": "string"
                }
            },
            "type": "object"
        },
        "Civ": {
            "enum": [
                "M.",
                "Mme"
            ],
            "type": "string"
        },
        "CodeTypeOrgane": {
            "enum": [
                "API",
                "ASSEMBLEE",
                "CJR",
                "CMP",
                "CNPE",
                "CNPS",
                "COMNL",
                "COMPER",
                "COMSENAT",
                "COMSPSENAT",
                "CONFPT",
                "CONSTITU",
                "DELEG",
                "DELEGBUREAU",
                "DELEGSENAT",
                "GA",
                "GE",
                "GEVI",
                "GOUVERNEMENT",
                "GP",
                "GROUPESENAT",
                "HCJ",
                "MINISTERE",
                "MISINFO",
                "MISINFOCOM",
                "MISINFOPRE",
                "OFFPAR",
                "ORGAINT",
                "ORGEXTPARL",
                "PARPOL",
                "PRESREP",
                "SENAT"
            ],
            "type": "string"
        },
        "Collaborateur": {
            "properties": {
                "nom": {
                    "type": "string"
                },
                "prenom": {
                    "type": "string"
                },
                "qualite": {
                    "$ref": "#/definitions/Civ"
                }
            },
            "type": "object"
        },
        "Convert": {
            "type": "object"
        },
        "Election": {
            "properties": {
                "causeMandat": {
                    "type": "string"
                },
                "lieu": {
                    "$ref": "#/definitions/Lieu"
                },
                "refCirconscription": {
                    "type": "string"
                }
            },
            "type": "object"
        },
        "EtatCivil": {
            "properties": {
                "dateDeces": {
                    "description": "Enables basic storage and retrieval of dates and times.",
                    "format": "date-time",
                    "type": "string"
                },
                "ident": {
                    "$ref": "#/definitions/Ident"
                },
                "infoNaissance": {
                    "$ref": "#/definitions/InfoNaissance"
                }
            },
            "type": "object"
        },
        "FamSocPro": {
            "enum": [
                "Agriculteurs exploitants",
                "Artisans, commerçants et chefs d'entreprise",
                "Autres personnes sans activité professionnelle",
                "Cadres et professions intellectuelles supérieures",
                "Employés",
                "Ouvriers",
                "Professions Intermédiaires",
                "Retraités",
                "Sans profession déclarée"
            ],
            "type": "string"
        },
        "Ident": {
            "properties": {
                "alpha": {
                    "type": "string"
                },
                "civ": {
                    "$ref": "#/definitions/Civ"
                },
                "nom": {
                    "type": "string"
                },
                "prenom": {
                    "type": "string"
                },
                "trigramme": {
                    "type": "string"
                }
            },
            "type": "object"
        },
        "InfoNaissance": {
            "properties": {
                "dateNais": {
                    "description": "Enables basic storage and retrieval of dates and times.",
                    "format": "date-time",
                    "type": "string"
                },
                "depNais": {
                    "type": "string"
                },
                "paysNais": {
                    "type": "string"
                },
                "villeNais": {
                    "type": "string"
                }
            },
            "type": "object"
        },
        "InfosQualite": {
            "properties": {
                "codeQualite": {
                    "type": "string"
                },
                "libQualite": {
                    "type": "string"
                },
                "libQualiteSex": {
                    "type": "string"
                }
            },
            "type": "object"
        },
        "Lieu": {
            "properties": {
                "departement": {
                    "type": "string"
                },
                "numCirco": {
                    "type": "string"
                },
                "numDepartement": {
                    "type": "string"
                },
                "region": {
                    "$ref": "#/definitions/Region"
                },
                "regionType": {
                    "$ref": "#/definitions/RegionType"
                }
            },
            "type": "object"
        },
        "Mandat": {
            "properties": {
                "acteurRef": {
                    "type": "string"
                },
                "collaborateurs": {
                    "items": {
                        "$ref": "#/definitions/Collaborateur"
                    },
                    "type": "array"
                },
                "dateDebut": {
                    "description": "Enables basic storage and retrieval of dates and times.",
                    "format": "date-time",
                    "type": "string"
                },
                "dateFin": {
                    "description": "Enables basic storage and retrieval of dates and times.",
                    "format": "date-time",
                    "type": "string"
                },
                "datePublication": {
                    "description": "Enables basic storage and retrieval of dates and times.",
                    "format": "date-time",
                    "type": "string"
                },
                "election": {
                    "$ref": "#/definitions/Election"
                },
                "infosQualite": {
                    "$ref": "#/definitions/InfosQualite"
                },
                "legislature": {
                    "type": "string"
                },
                "libelle": {
                    "type": "string"
                },
                "mandature": {
                    "$ref": "#/definitions/Mandature"
                },
                "missionPrecedenteRef": {
                    "type": "string"
                },
                "missionSuivanteRef": {
                    "type": "string"
                },
                "nominPrincipale": {
                    "type": "string"
                },
                "organes": {
                    "items": {
                        "$ref": "#/definitions/Organe"
                    },
                    "type": "array"
                },
                "organesRefs": {
                    "items": {
                        "type": "string"
                    },
                    "type": "array"
                },
                "preseance": {
                    "type": "string"
                },
                "suppleant": {
                    "$ref": "#/definitions/Suppleant"
                },
                "typeOrgane": {
                    "$ref": "#/definitions/CodeTypeOrgane"
                },
                "uid": {
                    "type": "string"
                },
                "xsiType": {
                    "$ref": "#/definitions/TypeMandat"
                }
            },
            "type": "object"
        },
        "Mandature": {
            "properties": {
                "causeFin": {
                    "type": "string"
                },
                "datePriseFonction": {
                    "description": "Enables basic storage and retrieval of dates and times.",
                    "format": "date-time",
                    "type": "string"
                },
                "mandatRemplaceRef": {
                    "type": "string"
                },
                "placeHemicycle": {
                    "type": "string"
                },
                "premiereElection": {
                    "type": "string"
                }
            },
            "type": "object"
        },
        "Organe": {
            "properties": {
                "codeType": {
                    "$ref": "#/definitions/CodeTypeOrgane"
                },
                "couleurAssociee": {
                    "type": "string"
                },
                "legislature": {
                    "type": "string"
                },
                "libelle": {
                    "type": "string"
                },
                "libelleAbrege": {
                    "type": "string"
                },
                "libelleAbrev": {
                    "type": "string"
                },
                "libelleEdition": {
                    "type": "string"
                },
                "listePays": {
                    "items": {
                        "type": "string"
                    },
                    "type": "array"
                },
                "nombreReunionsAnnuelles": {
                    "type": "string"
                },
                "organeParent": {
                    "$ref": "#/definitions/Organe"
                },
                "organeParentRef": {
                    "type": "string"
                },
                "positionPolitique": {
                    "$ref": "#/definitions/PositionPolitique"
                },
                "preseance": {
                    "type": "string"
                },
                "regime": {
                    "$ref": "#/definitions/Regime"
                },
                "regimeJuridique": {
                    "type": "string"
                },
                "schemaVersion": {
                    "type": "string"
                },
                "secretariat": {
                    "$ref": "#/definitions/Secretariat"
                },
                "siteInternet": {
                    "type": "string"
                },
                "uid": {
                    "type": "string"
                },
                "viMoDe": {
                    "$ref": "#/definitions/ViMoDe"
                },
                "xsiType": {
                    "$ref": "#/definitions/TypeOrgane"
                }
            },
            "type": "object"
        },
        "Photo": {
            "properties": {
                "chemin": {
                    "type": "string"
                },
                "cheminMosaique": {
                    "type": "string"
                },
                "hauteur": {
                    "type": "number"
                },
                "largeur": {
                    "type": "number"
                },
                "xMosaique": {
                    "type": "number"
                },
                "yMosaique": {
                    "type": "number"
                }
            },
            "type": "object"
        },
        "PositionPolitique": {
            "enum": [
                "Majoritaire",
                "Minoritaire",
                "Opposition"
            ],
            "type": "string"
        },
        "Profession": {
            "properties": {
                "libelleCourant": {
                    "type": "string"
                },
                "socProcInsee": {
                    "$ref": "#/definitions/SocProcInsee"
                }
            },
            "type": "object"
        },
        "Regime": {
            "enum": [
                "4ème République",
                "5ème République",
                "Assemblée consultative provisoire",
                "Assemblées nationales constituantes"
            ],
            "type": "string"
        },
        "Region": {
            "enum": [
                "Auvergne-Rhône-Alpes",
                "Bourgogne-Franche-Comté",
                "Bretagne",
                "Centre-Val de Loire",
                "Corse",
                "Français établis hors de France",
                "Grand Est",
                "Guadeloupe",
                "Guyane",
                "Hauts-de-France",
                "Ile-de-France",
                "Martinique",
                "Mayotte",
                "Normandie",
                "Nouvelle-Aquitaine",
                "Nouvelle-Calédonie",
                "Occitanie",
                "Pays de la Loire",
                "Polynésie française",
                "Provence-Alpes-Côte d'Azur",
                "Réunion",
                "Saint-Barthélemy et Saint-Martin",
                "Saint-Pierre-et-Miquelon",
                "Wallis-et-Futuna"
            ],
            "type": "string"
        },
        "RegionType": {
            "enum": [
                "Collectivités d'outre-mer et Nouvelle-Calédonie",
                "Dom",
                "Français établis hors de France",
                "Métropolitain"
            ],
            "type": "string"
        },
        "Secretariat": {
            "properties": {
                "secretaire01": {
                    "type": "string"
                },
                "secretaire02": {
                    "type": "string"
                }
            },
            "type": "object"
        },
        "SocProcInsee": {
            "properties": {
                "catSocPro": {
                    "type": "string"
                },
                "famSocPro": {
                    "$ref": "#/definitions/FamSocPro"
                }
            },
            "type": "object"
        },
        "Suppleant": {
            "properties": {
                "dateDebut": {
                    "description": "Enables basic storage and retrieval of dates and times.",
                    "format": "date-time",
                    "type": "string"
                },
                "dateFin": {
                    "description": "Enables basic storage and retrieval of dates and times.",
                    "format": "date-time",
                    "type": "string"
                },
                "suppleantRef": {
                    "type": "string"
                }
            },
            "type": "object"
        },
        "TypeMandat": {
            "enum": [
                "MandatAvecSuppleant_Type",
                "MandatMission_Type",
                "MandatParlementaire_type",
                "MandatSimple_Type"
            ],
            "type": "string"
        },
        "TypeOrgane": {
            "enum": [
                "GroupePolitique_type",
                "OrganeExterne_Type",
                "OrganeExtraParlementaire_type",
                "OrganeParlementaireInternational",
                "OrganeParlementaire_Type"
            ],
            "type": "string"
        },
        "ViMoDe": {
            "properties": {
                "dateAgrement": {
                    "description": "Enables basic storage and retrieval of dates and times.",
                    "format": "date-time",
                    "type": "string"
                },
                "dateDebut": {
                    "description": "Enables basic storage and retrieval of dates and times.",
                    "format": "date-time",
                    "type": "string"
                },
                "dateFin": {
                    "description": "Enables basic storage and retrieval of dates and times.",
                    "format": "date-time",
                    "type": "string"
                }
            },
            "type": "object"
        }
    }
}

