{
    "$schema": "http://json-schema.org/draft-07/schema#",
    "definitions": {
        "Legislature": {
            "enum": [
                "*",
                "14",
                "15"
            ],
            "type": "string"
        }
    }
}

