{
  "description": "Champs liés à un acte législatif concernant une motion.",

  "type": "object",
  "properties": {
    "auteurMotion": {
      "description": "Identifiant unique (uid) de `l'acteur <acteur.html>`__ auteur de la motion.",
      "type": "string"
    },
    "auteursRefs": {
      "description": "Liste des identifiants uniques (uid) des `acteurs <acteur.html>`__ auteurs de la motion de censure ou de la motion référendaire.",
      "items": {
        "type": "string"
      },
      "type": "array"
    }
  },
  
  "$schema": "http://json-schema.org/draft-07/schema#",
  "$id": "Motion.json",
  "$$target": [
    "Motion.json",
    "Motion.json#/properties/auteurMotion",
    "Motion.json#/properties/auteursRefs"
  ]
}
